[
    {
        "nombre": "Boletos rifa",
        "fecha_ini": "2019-08-01",
        "fecha_fin": "2019-05-01",
        "horas": "80",
        "status": true
    },
    {
        "nombre": "Cena",
        "fecha_ini": "2019-09-01",
        "fecha_fin": "2019-10-01",
        "horas": "80",
        "status": true
    },
    {
        "nombre": "Posada",
        "fecha_ini": "2019-12-15",
        "fecha_fin": "2019-15-15",
        "horas": "120",
        "status": true
    }
  ]